{
  "name": "AwesomeMap",
  "app_id": "",
  "proxies": [
    {
      "path": "/sr-api",
      "proxyUrl": "https://api.spritradarapp.de/v1/petrolstations/dynamic/"
    },
    {
      "path": "/yn-api",
      "proxyUrl": "http://www.yournavigation.org/api/1.0/"
    }
  ]
}
